{
    // НАСТРОЙКА ПАРАМЕТРОВ ТЕКУЩЕГО ЭКСПЕРИМЕНТА
    "__info__" : "Settings",

    // Параметры авторегресии
    "C0" : 0,
    "A1" : 0,
    "A2" : 0,

    // Инициализация генератора случайных чисел, для воспроизводимости результатов
    "Seed" : 42,

    // Харакетеристики случайного процесса без дефекта
    "M0" :  0, // Мат. ожидание
    "D0" :  1, // Дисперсия

  // Харакетеристики случайного процесса с дефектом
    "NumberOfClass": 2,  // 0 - Нет дефекта, 1 - Дефект 1, ....

    // Параметры МАКРО и МИКРО выборок и подвыборок
    "M" : 10,  // размер окна, число входных нейронов НС
    "T" : 20, // кол-во точек в МАКРО последовательности
//--- "N" : T-M  # кол-во подвыборок для родительской выборки

    // Размеры выборок
    "K_TRAIN" : 10000, // размер обучающей выборки
    "K_TEST"  : 10000, // размер контрольной выборки
//--- K = K_test + K_train

  // Характеристика дефекта
    // ОБУЧАЮЩАЯ ВЫБОРКА
    "MACRO_P_DEFECT_TRAIN" : 0.5,  // Веротяность что макро выборка будет с дефектом  величина от [0:1]
    "M_DEFECT_TRAIN" : 1,  // Мат. ожидание обучающей выборки
    "D_DEFECT_TRAIN" : 1,  // Дисперсия обучающей выборки
    // Диапазон возможного появления дефекта
    "T_MIN_DEFECT_TRAIN" : 10,   // Минимальное время возникновения дефекта
    "T_MAX_DEFECT_TRAIN" : 20,  // Максимальное время возникновения дефекта

    // ТЕСТОВАЯ ВЫБОРКА
    "MACRO_P_DEFECT_TEST" : 0.5,  // Веротяность что макро выборка будет с дефектом  величина от [0:1]
    "M_DEFECT_TEST" : 1,  // Мат. ожидание тестовой выборки
    "D_DEFECT_TEST" : 1,  // Дисперсия тестово выборки
    // Диапазон возможного появления дефекта
    "T_MIN_DEFECT_TEST" : 10,   // Минимальное время возникновения дефекта
    "T_MAX_DEFECT_TEST" : 20,  // Максимальное время возникновения дефекта

  // НАСТРОЙКА МОДЕЛИ НС
    "NAME_MODEL" : "FFNN",   // FFNN, CNN, RNN  other

    "MODEL" : "",      // Настройка модели грузиться из отедльного файлика

    "__end__": "end"
}